{
  "fileMap" : "C:\\javadev\\centuratojava\\centuraapi\\src\\main\\resources\\vt\\vtdebug.xml",
  "mapTypeJava" : {
    "CONSTANT" : {
      "DBF_MessageBox" : {
        "id" : -1823102303,
        "nameJava" : "DBF_MessageBox",
        "packageJava" : "",
        "owner" : -1823102306,
        "ownerJava" : "Vtdebug",
        "ownerTypeJava" : "INTERFACEINCLUDE",
        "nameCDK" : [ "DBF_MessageBox" ],
        "fileStr" : null,
        "superType" : null,
        "returnType" : null,
        "referenceType" : null,
        "interfaceType" : [ ],
        "typeJava" : "CONSTANT",
        "api" : false,
        "fixed" : false
      },
      "DBF_RealTime" : {
        "id" : -1823102304,
        "nameJava" : "DBF_RealTime",
        "packageJava" : "",
        "owner" : -1823102306,
        "ownerJava" : "Vtdebug",
        "ownerTypeJava" : "INTERFACEINCLUDE",
        "nameCDK" : [ "DBF_RealTime" ],
        "fileStr" : null,
        "superType" : null,
        "returnType" : null,
        "referenceType" : null,
        "interfaceType" : [ ],
        "typeJava" : "CONSTANT",
        "api" : false,
        "fixed" : false
      },
      "DBF_IncrementalTime" : {
        "id" : -1823102305,
        "nameJava" : "DBF_IncrementalTime",
        "packageJava" : "",
        "owner" : -1823102306,
        "ownerJava" : "Vtdebug",
        "ownerTypeJava" : "INTERFACEINCLUDE",
        "nameCDK" : [ "DBF_IncrementalTime" ],
        "fileStr" : null,
        "superType" : null,
        "returnType" : null,
        "referenceType" : null,
        "interfaceType" : [ ],
        "typeJava" : "CONSTANT",
        "api" : false,
        "fixed" : false
      }
    },
    "INTERFACEINCLUDE" : {
      "Vtdebug" : {
        "id" : -1823102306,
        "nameJava" : "Vtdebug",
        "packageJava" : "",
        "owner" : null,
        "ownerJava" : null,
        "ownerTypeJava" : null,
        "nameCDK" : [ "vtdebug" ],
        "fileStr" : null,
        "superType" : null,
        "returnType" : null,
        "referenceType" : null,
        "interfaceType" : [ "com.centura.api.vt.dlls.Vti20" ],
        "typeJava" : "INTERFACEINCLUDE",
        "api" : false,
        "fixed" : false
      }
    }
  },
  "packageBase" : "com.centura.api.vt"
}