{
  "fileMap" : "C:\\javadev\\centuratojava\\centuraapi\\src\\main\\resources\\vt\\vtfontnm.xml",
  "mapTypeJava" : {
    "INTERFACEINCLUDE" : {
      "Vtfontnm" : {
        "id" : -1823102002,
        "nameJava" : "Vtfontnm",
        "packageJava" : "",
        "owner" : null,
        "ownerJava" : null,
        "ownerTypeJava" : null,
        "nameCDK" : [ "vtfontnm" ],
        "fileStr" : null,
        "superType" : null,
        "returnType" : null,
        "referenceType" : null,
        "interfaceType" : [ "com.centura.api.vt.Vtcomm", "com.centura.api.vt.Vtlbx", "com.centura.api.vt.Vtmisc", "com.centura.api.vt.dlls.Vti20" ],
        "typeJava" : "INTERFACEINCLUDE",
        "api" : false,
        "fixed" : false
      }
    }
  },
  "packageBase" : "com.centura.api.vt"
}