{
  "fileMap" : "C:\\javadev\\centuratojava\\centuraapi\\src\\main\\resources\\vt\\vtlstvw.xml",
  "mapTypeJava" : {
    "CONSTANT" : {
      "LVIF_State" : {
        "id" : -1823102124,
        "nameJava" : "LVIF_State",
        "packageJava" : "",
        "owner" : -1823102147,
        "ownerJava" : "Vtlstvw",
        "ownerTypeJava" : "INTERFACEINCLUDE",
        "nameCDK" : [ "LVIF_State" ],
        "fileStr" : null,
        "superType" : null,
        "returnType" : null,
        "referenceType" : null,
        "interfaceType" : [ ],
        "typeJava" : "CONSTANT",
        "api" : false,
        "fixed" : false
      },
      "LVS_NoSortHeader" : {
        "id" : -1823102130,
        "nameJava" : "LVS_NoSortHeader",
        "packageJava" : "",
        "owner" : -1823102147,
        "ownerJava" : "Vtlstvw",
        "ownerTypeJava" : "INTERFACEINCLUDE",
        "nameCDK" : [ "LVS_NoSortHeader" ],
        "fileStr" : null,
        "superType" : null,
        "returnType" : null,
        "referenceType" : null,
        "interfaceType" : [ ],
        "typeJava" : "CONSTANT",
        "api" : false,
        "fixed" : false
      },
      "LVS_EditLabels" : {
        "id" : -1823102137,
        "nameJava" : "LVS_EditLabels",
        "packageJava" : "",
        "owner" : -1823102147,
        "ownerJava" : "Vtlstvw",
        "ownerTypeJava" : "INTERFACEINCLUDE",
        "nameCDK" : [ "LVS_EditLabels" ],
        "fileStr" : null,
        "superType" : null,
        "returnType" : null,
        "referenceType" : null,
        "interfaceType" : [ ],
        "typeJava" : "CONSTANT",
        "api" : false,
        "fixed" : false
      },
      "LVS_NoScroll" : {
        "id" : -1823102136,
        "nameJava" : "LVS_NoScroll",
        "packageJava" : "",
        "owner" : -1823102147,
        "ownerJava" : "Vtlstvw",
        "ownerTypeJava" : "INTERFACEINCLUDE",
        "nameCDK" : [ "LVS_NoScroll" ],
        "fileStr" : null,
        "superType" : null,
        "returnType" : null,
        "referenceType" : null,
        "interfaceType" : [ ],
        "typeJava" : "CONSTANT",
        "api" : false,
        "fixed" : false
      },
      "LVS_List" : {
        "id" : -1823102143,
        "nameJava" : "LVS_List",
        "packageJava" : "",
        "owner" : -1823102147,
        "ownerJava" : "Vtlstvw",
        "ownerTypeJava" : "INTERFACEINCLUDE",
        "nameCDK" : [ "LVS_List" ],
        "fileStr" : null,
        "superType" : null,
        "returnType" : null,
        "referenceType" : null,
        "interfaceType" : [ ],
        "typeJava" : "CONSTANT",
        "api" : false,
        "fixed" : false
      },
      "LVS_AlignMask" : {
        "id" : -1823102132,
        "nameJava" : "LVS_AlignMask",
        "packageJava" : "",
        "owner" : -1823102147,
        "ownerJava" : "Vtlstvw",
        "ownerTypeJava" : "INTERFACEINCLUDE",
        "nameCDK" : [ "LVS_AlignMask" ],
        "fileStr" : null,
        "superType" : null,
        "returnType" : null,
        "referenceType" : null,
        "interfaceType" : [ ],
        "typeJava" : "CONSTANT",
        "api" : false,
        "fixed" : false
      },
      "LVIS_Focused" : {
        "id" : -1823102123,
        "nameJava" : "LVIS_Focused",
        "packageJava" : "",
        "owner" : -1823102147,
        "ownerJava" : "Vtlstvw",
        "ownerTypeJava" : "INTERFACEINCLUDE",
        "nameCDK" : [ "LVIS_Focused" ],
        "fileStr" : null,
        "superType" : null,
        "returnType" : null,
        "referenceType" : null,
        "interfaceType" : [ ],
        "typeJava" : "CONSTANT",
        "api" : false,
        "fixed" : false
      },
      "LVS_NoLabelWrap" : {
        "id" : -1823102139,
        "nameJava" : "LVS_NoLabelWrap",
        "packageJava" : "",
        "owner" : -1823102147,
        "ownerJava" : "Vtlstvw",
        "ownerTypeJava" : "INTERFACEINCLUDE",
        "nameCDK" : [ "LVS_NoLabelWrap" ],
        "fileStr" : null,
        "superType" : null,
        "returnType" : null,
        "referenceType" : null,
        "interfaceType" : [ ],
        "typeJava" : "CONSTANT",
        "api" : false,
        "fixed" : false
      },
      "LVNI_Selected" : {
        "id" : -1823102116,
        "nameJava" : "LVNI_Selected",
        "packageJava" : "",
        "owner" : -1823102147,
        "ownerJava" : "Vtlstvw",
        "ownerTypeJava" : "INTERFACEINCLUDE",
        "nameCDK" : [ "LVNI_Selected" ],
        "fileStr" : null,
        "superType" : null,
        "returnType" : null,
        "referenceType" : null,
        "interfaceType" : [ ],
        "typeJava" : "CONSTANT",
        "api" : false,
        "fixed" : false
      },
      "LVA_AlignTop" : {
        "id" : -1823102090,
        "nameJava" : "LVA_AlignTop",
        "packageJava" : "",
        "owner" : -1823102147,
        "ownerJava" : "Vtlstvw",
        "ownerTypeJava" : "INTERFACEINCLUDE",
        "nameCDK" : [ "LVA_AlignTop" ],
        "fileStr" : null,
        "superType" : null,
        "returnType" : null,
        "referenceType" : null,
        "interfaceType" : [ ],
        "typeJava" : "CONSTANT",
        "api" : false,
        "fixed" : false
      },
      "LVS_TypeMask" : {
        "id" : -1823102142,
        "nameJava" : "LVS_TypeMask",
        "packageJava" : "",
        "owner" : -1823102147,
        "ownerJava" : "Vtlstvw",
        "ownerTypeJava" : "INTERFACEINCLUDE",
        "nameCDK" : [ "LVS_TypeMask" ],
        "fileStr" : null,
        "superType" : null,
        "returnType" : null,
        "referenceType" : null,
        "interfaceType" : [ ],
        "typeJava" : "CONSTANT",
        "api" : false,
        "fixed" : false
      },
      "LVCF_Width" : {
        "id" : -1823102087,
        "nameJava" : "LVCF_Width",
        "packageJava" : "",
        "owner" : -1823102147,
        "ownerJava" : "Vtlstvw",
        "ownerTypeJava" : "INTERFACEINCLUDE",
        "nameCDK" : [ "LVCF_Width" ],
        "fileStr" : null,
        "superType" : null,
        "returnType" : null,
        "referenceType" : null,
        "interfaceType" : [ ],
        "typeJava" : "CONSTANT",
        "api" : false,
        "fixed" : false
      },
      "LVA_Default" : {
        "id" : -1823102092,
        "nameJava" : "LVA_Default",
        "packageJava" : "",
        "owner" : -1823102147,
        "ownerJava" : "Vtlstvw",
        "ownerTypeJava" : "INTERFACEINCLUDE",
        "nameCDK" : [ "LVA_Default" ],
        "fileStr" : null,
        "superType" : null,
        "returnType" : null,
        "referenceType" : null,
        "interfaceType" : [ ],
        "typeJava" : "CONSTANT",
        "api" : false,
        "fixed" : false
      },
      "LVIF_Text" : {
        "id" : -1823102127,
        "nameJava" : "LVIF_Text",
        "packageJava" : "",
        "owner" : -1823102147,
        "ownerJava" : "Vtlstvw",
        "ownerTypeJava" : "INTERFACEINCLUDE",
        "nameCDK" : [ "LVIF_Text" ],
        "fileStr" : null,
        "superType" : null,
        "returnType" : null,
        "referenceType" : null,
        "interfaceType" : [ ],
        "typeJava" : "CONSTANT",
        "api" : false,
        "fixed" : false
      },
      "LVIS_Cut" : {
        "id" : -1823102121,
        "nameJava" : "LVIS_Cut",
        "packageJava" : "",
        "owner" : -1823102147,
        "ownerJava" : "Vtlstvw",
        "ownerTypeJava" : "INTERFACEINCLUDE",
        "nameCDK" : [ "LVIS_Cut" ],
        "fileStr" : null,
        "superType" : null,
        "returnType" : null,
        "referenceType" : null,
        "interfaceType" : [ ],
        "typeJava" : "CONSTANT",
        "api" : false,
        "fixed" : false
      },
      "LVHT_OnItemLabel" : {
        "id" : -1823102099,
        "nameJava" : "LVHT_OnItemLabel",
        "packageJava" : "",
        "owner" : -1823102147,
        "ownerJava" : "Vtlstvw",
        "ownerTypeJava" : "INTERFACEINCLUDE",
        "nameCDK" : [ "LVHT_OnItemLabel" ],
        "fileStr" : null,
        "superType" : null,
        "returnType" : null,
        "referenceType" : null,
        "interfaceType" : [ ],
        "typeJava" : "CONSTANT",
        "api" : false,
        "fixed" : false
      },
      "LVCF_Fmt" : {
        "id" : -1823102088,
        "nameJava" : "LVCF_Fmt",
        "packageJava" : "",
        "owner" : -1823102147,
        "ownerJava" : "Vtlstvw",
        "ownerTypeJava" : "INTERFACEINCLUDE",
        "nameCDK" : [ "LVCF_Fmt" ],
        "fileStr" : null,
        "superType" : null,
        "returnType" : null,
        "referenceType" : null,
        "interfaceType" : [ ],
        "typeJava" : "CONSTANT",
        "api" : false,
        "fixed" : false
      },
      "LVNI_DropHilited" : {
        "id" : -1823102114,
        "nameJava" : "LVNI_DropHilited",
        "packageJava" : "",
        "owner" : -1823102147,
        "ownerJava" : "Vtlstvw",
        "ownerTypeJava" : "INTERFACEINCLUDE",
        "nameCDK" : [ "LVNI_DropHilited" ],
        "fileStr" : null,
        "superType" : null,
        "returnType" : null,
        "referenceType" : null,
        "interfaceType" : [ ],
        "typeJava" : "CONSTANT",
        "api" : false,
        "fixed" : false
      },
      "LVN_InsertItem" : {
        "id" : -1823102078,
        "nameJava" : "LVN_InsertItem",
        "packageJava" : "",
        "owner" : -1823102147,
        "ownerJava" : "Vtlstvw",
        "ownerTypeJava" : "INTERFACEINCLUDE",
        "nameCDK" : [ "LVN_InsertItem" ],
        "fileStr" : null,
        "superType" : null,
        "returnType" : null,
        "referenceType" : null,
        "interfaceType" : [ ],
        "typeJava" : "CONSTANT",
        "api" : false,
        "fixed" : false
      },
      "LVN_BeginDrag" : {
        "id" : -1823102074,
        "nameJava" : "LVN_BeginDrag",
        "packageJava" : "",
        "owner" : -1823102147,
        "ownerJava" : "Vtlstvw",
        "ownerTypeJava" : "INTERFACEINCLUDE",
        "nameCDK" : [ "LVN_BeginDrag" ],
        "fileStr" : null,
        "superType" : null,
        "returnType" : null,
        "referenceType" : null,
        "interfaceType" : [ ],
        "typeJava" : "CONSTANT",
        "api" : false,
        "fixed" : false
      },
      "LVHT_Above" : {
        "id" : -1823102096,
        "nameJava" : "LVHT_Above",
        "packageJava" : "",
        "owner" : -1823102147,
        "ownerJava" : "Vtlstvw",
        "ownerTypeJava" : "INTERFACEINCLUDE",
        "nameCDK" : [ "LVHT_Above" ],
        "fileStr" : null,
        "superType" : null,
        "returnType" : null,
        "referenceType" : null,
        "interfaceType" : [ ],
        "typeJava" : "CONSTANT",
        "api" : false,
        "fixed" : false
      },
      "LVA_SnapToGrid" : {
        "id" : -1823102089,
        "nameJava" : "LVA_SnapToGrid",
        "packageJava" : "",
        "owner" : -1823102147,
        "ownerJava" : "Vtlstvw",
        "ownerTypeJava" : "INTERFACEINCLUDE",
        "nameCDK" : [ "LVA_SnapToGrid" ],
        "fileStr" : null,
        "superType" : null,
        "returnType" : null,
        "referenceType" : null,
        "interfaceType" : [ ],
        "typeJava" : "CONSTANT",
        "api" : false,
        "fixed" : false
      },
      "LVIS_DropHilited" : {
        "id" : -1823102120,
        "nameJava" : "LVIS_DropHilited",
        "packageJava" : "",
        "owner" : -1823102147,
        "ownerJava" : "Vtlstvw",
        "ownerTypeJava" : "INTERFACEINCLUDE",
        "nameCDK" : [ "LVIS_DropHilited" ],
        "fileStr" : null,
        "superType" : null,
        "returnType" : null,
        "referenceType" : null,
        "interfaceType" : [ ],
        "typeJava" : "CONSTANT",
        "api" : false,
        "fixed" : false
      },
      "LVS_Report" : {
        "id" : -1823102145,
        "nameJava" : "LVS_Report",
        "packageJava" : "",
        "owner" : -1823102147,
        "ownerJava" : "Vtlstvw",
        "ownerTypeJava" : "INTERFACEINCLUDE",
        "nameCDK" : [ "LVS_Report" ],
        "fileStr" : null,
        "superType" : null,
        "returnType" : null,
        "referenceType" : null,
        "interfaceType" : [ ],
        "typeJava" : "CONSTANT",
        "api" : false,
        "fixed" : false
      },
      "LVHT_OnItemIcon" : {
        "id" : -1823102100,
        "nameJava" : "LVHT_OnItemIcon",
        "packageJava" : "",
        "owner" : -1823102147,
        "ownerJava" : "Vtlstvw",
        "ownerTypeJava" : "INTERFACEINCLUDE",
        "nameCDK" : [ "LVHT_OnItemIcon" ],
        "fileStr" : null,
        "superType" : null,
        "returnType" : null,
        "referenceType" : null,
        "interfaceType" : [ ],
        "typeJava" : "CONSTANT",
        "api" : false,
        "fixed" : false
      },
      "LVS_TypeStyleMask" : {
        "id" : -1823102135,
        "nameJava" : "LVS_TypeStyleMask",
        "packageJava" : "",
        "owner" : -1823102147,
        "ownerJava" : "Vtlstvw",
        "ownerTypeJava" : "INTERFACEINCLUDE",
        "nameCDK" : [ "LVS_TypeStyleMask" ],
        "fileStr" : null,
        "superType" : null,
        "returnType" : null,
        "referenceType" : null,
        "interfaceType" : [ ],
        "typeJava" : "CONSTANT",
        "api" : false,
        "fixed" : false
      },
      "LVIR_SelectBounds" : {
        "id" : -1823102102,
        "nameJava" : "LVIR_SelectBounds",
        "packageJava" : "",
        "owner" : -1823102147,
        "ownerJava" : "Vtlstvw",
        "ownerTypeJava" : "INTERFACEINCLUDE",
        "nameCDK" : [ "LVIR_SelectBounds" ],
        "fileStr" : null,
        "superType" : null,
        "returnType" : null,
        "referenceType" : null,
        "interfaceType" : [ ],
        "typeJava" : "CONSTANT",
        "api" : false,
        "fixed" : false
      },
      "LVHT_Below" : {
        "id" : -1823102095,
        "nameJava" : "LVHT_Below",
        "packageJava" : "",
        "owner" : -1823102147,
        "ownerJava" : "Vtlstvw",
        "ownerTypeJava" : "INTERFACEINCLUDE",
        "nameCDK" : [ "LVHT_Below" ],
        "fileStr" : null,
        "superType" : null,
        "returnType" : null,
        "referenceType" : null,
        "interfaceType" : [ ],
        "typeJava" : "CONSTANT",
        "api" : false,
        "fixed" : false
      },
      "LVCFMT_Left" : {
        "id" : -1823102085,
        "nameJava" : "LVCFMT_Left",
        "packageJava" : "",
        "owner" : -1823102147,
        "ownerJava" : "Vtlstvw",
        "ownerTypeJava" : "INTERFACEINCLUDE",
        "nameCDK" : [ "LVCFMT_Left" ],
        "fileStr" : null,
        "superType" : null,
        "returnType" : null,
        "referenceType" : null,
        "interfaceType" : [ ],
        "typeJava" : "CONSTANT",
        "api" : false,
        "fixed" : false
      },
      "LVS_NoColumnHeader" : {
        "id" : -1823102131,
        "nameJava" : "LVS_NoColumnHeader",
        "packageJava" : "",
        "owner" : -1823102147,
        "ownerJava" : "Vtlstvw",
        "ownerTypeJava" : "INTERFACEINCLUDE",
        "nameCDK" : [ "LVS_NoColumnHeader" ],
        "fileStr" : null,
        "superType" : null,
        "returnType" : null,
        "referenceType" : null,
        "interfaceType" : [ ],
        "typeJava" : "CONSTANT",
        "api" : false,
        "fixed" : false
      },
      "LVHT_ToLeft" : {
        "id" : -1823102093,
        "nameJava" : "LVHT_ToLeft",
        "packageJava" : "",
        "owner" : -1823102147,
        "ownerJava" : "Vtlstvw",
        "ownerTypeJava" : "INTERFACEINCLUDE",
        "nameCDK" : [ "LVHT_ToLeft" ],
        "fileStr" : null,
        "superType" : null,
        "returnType" : null,
        "referenceType" : null,
        "interfaceType" : [ ],
        "typeJava" : "CONSTANT",
        "api" : false,
        "fixed" : false
      },
      "LVS_AlignTop" : {
        "id" : -1823102134,
        "nameJava" : "LVS_AlignTop",
        "packageJava" : "",
        "owner" : -1823102147,
        "ownerJava" : "Vtlstvw",
        "ownerTypeJava" : "INTERFACEINCLUDE",
        "nameCDK" : [ "LVS_AlignTop" ],
        "fileStr" : null,
        "superType" : null,
        "returnType" : null,
        "referenceType" : null,
        "interfaceType" : [ ],
        "typeJava" : "CONSTANT",
        "api" : false,
        "fixed" : false
      },
      "LVS_ShowSelAlways" : {
        "id" : -1823102140,
        "nameJava" : "LVS_ShowSelAlways",
        "packageJava" : "",
        "owner" : -1823102147,
        "ownerJava" : "Vtlstvw",
        "ownerTypeJava" : "INTERFACEINCLUDE",
        "nameCDK" : [ "LVS_ShowSelAlways" ],
        "fileStr" : null,
        "superType" : null,
        "returnType" : null,
        "referenceType" : null,
        "interfaceType" : [ ],
        "typeJava" : "CONSTANT",
        "api" : false,
        "fixed" : false
      },
      "LVIS_Selected" : {
        "id" : -1823102122,
        "nameJava" : "LVIS_Selected",
        "packageJava" : "",
        "owner" : -1823102147,
        "ownerJava" : "Vtlstvw",
        "ownerTypeJava" : "INTERFACEINCLUDE",
        "nameCDK" : [ "LVIS_Selected" ],
        "fileStr" : null,
        "superType" : null,
        "returnType" : null,
        "referenceType" : null,
        "interfaceType" : [ ],
        "typeJava" : "CONSTANT",
        "api" : false,
        "fixed" : false
      },
      "LVN_DeleteAllItems" : {
        "id" : -1823102076,
        "nameJava" : "LVN_DeleteAllItems",
        "packageJava" : "",
        "owner" : -1823102147,
        "ownerJava" : "Vtlstvw",
        "ownerTypeJava" : "INTERFACEINCLUDE",
        "nameCDK" : [ "LVN_DeleteAllItems" ],
        "fileStr" : null,
        "superType" : null,
        "returnType" : null,
        "referenceType" : null,
        "interfaceType" : [ ],
        "typeJava" : "CONSTANT",
        "api" : false,
        "fixed" : false
      },
      "LVS_Icon" : {
        "id" : -1823102146,
        "nameJava" : "LVS_Icon",
        "packageJava" : "",
        "owner" : -1823102147,
        "ownerJava" : "Vtlstvw",
        "ownerTypeJava" : "INTERFACEINCLUDE",
        "nameCDK" : [ "LVS_Icon" ],
        "fileStr" : null,
        "superType" : null,
        "returnType" : null,
        "referenceType" : null,
        "interfaceType" : [ ],
        "typeJava" : "CONSTANT",
        "api" : false,
        "fixed" : false
      },
      "LVFI_Partial" : {
        "id" : -1823102108,
        "nameJava" : "LVFI_Partial",
        "packageJava" : "",
        "owner" : -1823102147,
        "ownerJava" : "Vtlstvw",
        "ownerTypeJava" : "INTERFACEINCLUDE",
        "nameCDK" : [ "LVFI_Partial" ],
        "fileStr" : null,
        "superType" : null,
        "returnType" : null,
        "referenceType" : null,
        "interfaceType" : [ ],
        "typeJava" : "CONSTANT",
        "api" : false,
        "fixed" : false
      },
      "LVIR_Icon" : {
        "id" : -1823102104,
        "nameJava" : "LVIR_Icon",
        "packageJava" : "",
        "owner" : -1823102147,
        "ownerJava" : "Vtlstvw",
        "ownerTypeJava" : "INTERFACEINCLUDE",
        "nameCDK" : [ "LVIR_Icon" ],
        "fileStr" : null,
        "superType" : null,
        "returnType" : null,
        "referenceType" : null,
        "interfaceType" : [ ],
        "typeJava" : "CONSTANT",
        "api" : false,
        "fixed" : false
      },
      "LVFI_Wrap" : {
        "id" : -1823102107,
        "nameJava" : "LVFI_Wrap",
        "packageJava" : "",
        "owner" : -1823102147,
        "ownerJava" : "Vtlstvw",
        "ownerTypeJava" : "INTERFACEINCLUDE",
        "nameCDK" : [ "LVFI_Wrap" ],
        "fileStr" : null,
        "superType" : null,
        "returnType" : null,
        "referenceType" : null,
        "interfaceType" : [ ],
        "typeJava" : "CONSTANT",
        "api" : false,
        "fixed" : false
      },
      "LVCFMT_Center" : {
        "id" : -1823102083,
        "nameJava" : "LVCFMT_Center",
        "packageJava" : "",
        "owner" : -1823102147,
        "ownerJava" : "Vtlstvw",
        "ownerTypeJava" : "INTERFACEINCLUDE",
        "nameCDK" : [ "LVCFMT_Center" ],
        "fileStr" : null,
        "superType" : null,
        "returnType" : null,
        "referenceType" : null,
        "interfaceType" : [ ],
        "typeJava" : "CONSTANT",
        "api" : false,
        "fixed" : false
      },
      "LVFI_String" : {
        "id" : -1823102109,
        "nameJava" : "LVFI_String",
        "packageJava" : "",
        "owner" : -1823102147,
        "ownerJava" : "Vtlstvw",
        "ownerTypeJava" : "INTERFACEINCLUDE",
        "nameCDK" : [ "LVFI_String" ],
        "fileStr" : null,
        "superType" : null,
        "returnType" : null,
        "referenceType" : null,
        "interfaceType" : [ ],
        "typeJava" : "CONSTANT",
        "api" : false,
        "fixed" : false
      },
      "LVCFMT_Right" : {
        "id" : -1823102084,
        "nameJava" : "LVCFMT_Right",
        "packageJava" : "",
        "owner" : -1823102147,
        "ownerJava" : "Vtlstvw",
        "ownerTypeJava" : "INTERFACEINCLUDE",
        "nameCDK" : [ "LVCFMT_Right" ],
        "fileStr" : null,
        "superType" : null,
        "returnType" : null,
        "referenceType" : null,
        "interfaceType" : [ ],
        "typeJava" : "CONSTANT",
        "api" : false,
        "fixed" : false
      },
      "LVHT_OnItemStateIcon" : {
        "id" : -1823102098,
        "nameJava" : "LVHT_OnItemStateIcon",
        "packageJava" : "",
        "owner" : -1823102147,
        "ownerJava" : "Vtlstvw",
        "ownerTypeJava" : "INTERFACEINCLUDE",
        "nameCDK" : [ "LVHT_OnItemStateIcon" ],
        "fileStr" : null,
        "superType" : null,
        "returnType" : null,
        "referenceType" : null,
        "interfaceType" : [ ],
        "typeJava" : "CONSTANT",
        "api" : false,
        "fixed" : false
      },
      "LVS_SingleSel" : {
        "id" : -1823102141,
        "nameJava" : "LVS_SingleSel",
        "packageJava" : "",
        "owner" : -1823102147,
        "ownerJava" : "Vtlstvw",
        "ownerTypeJava" : "INTERFACEINCLUDE",
        "nameCDK" : [ "LVS_SingleSel" ],
        "fileStr" : null,
        "superType" : null,
        "returnType" : null,
        "referenceType" : null,
        "interfaceType" : [ ],
        "typeJava" : "CONSTANT",
        "api" : false,
        "fixed" : false
      },
      "LVN_ItemChanging" : {
        "id" : -1823102080,
        "nameJava" : "LVN_ItemChanging",
        "packageJava" : "",
        "owner" : -1823102147,
        "ownerJava" : "Vtlstvw",
        "ownerTypeJava" : "INTERFACEINCLUDE",
        "nameCDK" : [ "LVN_ItemChanging" ],
        "fileStr" : null,
        "superType" : null,
        "returnType" : null,
        "referenceType" : null,
        "interfaceType" : [ ],
        "typeJava" : "CONSTANT",
        "api" : false,
        "fixed" : false
      },
      "LVN_DeleteItem" : {
        "id" : -1823102077,
        "nameJava" : "LVN_DeleteItem",
        "packageJava" : "",
        "owner" : -1823102147,
        "ownerJava" : "Vtlstvw",
        "ownerTypeJava" : "INTERFACEINCLUDE",
        "nameCDK" : [ "LVN_DeleteItem" ],
        "fileStr" : null,
        "superType" : null,
        "returnType" : null,
        "referenceType" : null,
        "interfaceType" : [ ],
        "typeJava" : "CONSTANT",
        "api" : false,
        "fixed" : false
      },
      "LVNI_Focused" : {
        "id" : -1823102117,
        "nameJava" : "LVNI_Focused",
        "packageJava" : "",
        "owner" : -1823102147,
        "ownerJava" : "Vtlstvw",
        "ownerTypeJava" : "INTERFACEINCLUDE",
        "nameCDK" : [ "LVNI_Focused" ],
        "fileStr" : null,
        "superType" : null,
        "returnType" : null,
        "referenceType" : null,
        "interfaceType" : [ ],
        "typeJava" : "CONSTANT",
        "api" : false,
        "fixed" : false
      },
      "LVN_First" : {
        "id" : -1823102081,
        "nameJava" : "LVN_First",
        "packageJava" : "",
        "owner" : -1823102147,
        "ownerJava" : "Vtlstvw",
        "ownerTypeJava" : "INTERFACEINCLUDE",
        "nameCDK" : [ "LVN_First" ],
        "fileStr" : null,
        "superType" : null,
        "returnType" : null,
        "referenceType" : null,
        "interfaceType" : [ ],
        "typeJava" : "CONSTANT",
        "api" : false,
        "fixed" : false
      },
      "LVCF_Text" : {
        "id" : -1823102086,
        "nameJava" : "LVCF_Text",
        "packageJava" : "",
        "owner" : -1823102147,
        "ownerJava" : "Vtlstvw",
        "ownerTypeJava" : "INTERFACEINCLUDE",
        "nameCDK" : [ "LVCF_Text" ],
        "fileStr" : null,
        "superType" : null,
        "returnType" : null,
        "referenceType" : null,
        "interfaceType" : [ ],
        "typeJava" : "CONSTANT",
        "api" : false,
        "fixed" : false
      },
      "LVNI_Cut" : {
        "id" : -1823102115,
        "nameJava" : "LVNI_Cut",
        "packageJava" : "",
        "owner" : -1823102147,
        "ownerJava" : "Vtlstvw",
        "ownerTypeJava" : "INTERFACEINCLUDE",
        "nameCDK" : [ "LVNI_Cut" ],
        "fileStr" : null,
        "superType" : null,
        "returnType" : null,
        "referenceType" : null,
        "interfaceType" : [ ],
        "typeJava" : "CONSTANT",
        "api" : false,
        "fixed" : false
      },
      "LVNI_ToLeft" : {
        "id" : -1823102111,
        "nameJava" : "LVNI_ToLeft",
        "packageJava" : "",
        "owner" : -1823102147,
        "ownerJava" : "Vtlstvw",
        "ownerTypeJava" : "INTERFACEINCLUDE",
        "nameCDK" : [ "LVNI_ToLeft" ],
        "fileStr" : null,
        "superType" : null,
        "returnType" : null,
        "referenceType" : null,
        "interfaceType" : [ ],
        "typeJava" : "CONSTANT",
        "api" : false,
        "fixed" : false
      },
      "LVSORT_Ascending" : {
        "id" : -1823102129,
        "nameJava" : "LVSORT_Ascending",
        "packageJava" : "",
        "owner" : -1823102147,
        "ownerJava" : "Vtlstvw",
        "ownerTypeJava" : "INTERFACEINCLUDE",
        "nameCDK" : [ "LVSORT_Ascending" ],
        "fileStr" : null,
        "superType" : null,
        "returnType" : null,
        "referenceType" : null,
        "interfaceType" : [ ],
        "typeJava" : "CONSTANT",
        "api" : false,
        "fixed" : false
      },
      "LVHT_OnItem" : {
        "id" : -1823102097,
        "nameJava" : "LVHT_OnItem",
        "packageJava" : "",
        "owner" : -1823102147,
        "ownerJava" : "Vtlstvw",
        "ownerTypeJava" : "INTERFACEINCLUDE",
        "nameCDK" : [ "LVHT_OnItem" ],
        "fileStr" : null,
        "superType" : null,
        "returnType" : null,
        "referenceType" : null,
        "interfaceType" : [ ],
        "typeJava" : "CONSTANT",
        "api" : false,
        "fixed" : false
      },
      "LVN_ItemChanged" : {
        "id" : -1823102079,
        "nameJava" : "LVN_ItemChanged",
        "packageJava" : "",
        "owner" : -1823102147,
        "ownerJava" : "Vtlstvw",
        "ownerTypeJava" : "INTERFACEINCLUDE",
        "nameCDK" : [ "LVN_ItemChanged" ],
        "fileStr" : null,
        "superType" : null,
        "returnType" : null,
        "referenceType" : null,
        "interfaceType" : [ ],
        "typeJava" : "CONSTANT",
        "api" : false,
        "fixed" : false
      },
      "LVN_ColumnClick" : {
        "id" : -1823102075,
        "nameJava" : "LVN_ColumnClick",
        "packageJava" : "",
        "owner" : -1823102147,
        "ownerJava" : "Vtlstvw",
        "ownerTypeJava" : "INTERFACEINCLUDE",
        "nameCDK" : [ "LVN_ColumnClick" ],
        "fileStr" : null,
        "superType" : null,
        "returnType" : null,
        "referenceType" : null,
        "interfaceType" : [ ],
        "typeJava" : "CONSTANT",
        "api" : false,
        "fixed" : false
      },
      "LVS_AutoArrange" : {
        "id" : -1823102138,
        "nameJava" : "LVS_AutoArrange",
        "packageJava" : "",
        "owner" : -1823102147,
        "ownerJava" : "Vtlstvw",
        "ownerTypeJava" : "INTERFACEINCLUDE",
        "nameCDK" : [ "LVS_AutoArrange" ],
        "fileStr" : null,
        "superType" : null,
        "returnType" : null,
        "referenceType" : null,
        "interfaceType" : [ ],
        "typeJava" : "CONSTANT",
        "api" : false,
        "fixed" : false
      },
      "LVSORT_Descending" : {
        "id" : -1823102128,
        "nameJava" : "LVSORT_Descending",
        "packageJava" : "",
        "owner" : -1823102147,
        "ownerJava" : "Vtlstvw",
        "ownerTypeJava" : "INTERFACEINCLUDE",
        "nameCDK" : [ "LVSORT_Descending" ],
        "fileStr" : null,
        "superType" : null,
        "returnType" : null,
        "referenceType" : null,
        "interfaceType" : [ ],
        "typeJava" : "CONSTANT",
        "api" : false,
        "fixed" : false
      },
      "LVIS_StateImageMask" : {
        "id" : -1823102119,
        "nameJava" : "LVIS_StateImageMask",
        "packageJava" : "",
        "owner" : -1823102147,
        "ownerJava" : "Vtlstvw",
        "ownerTypeJava" : "INTERFACEINCLUDE",
        "nameCDK" : [ "LVIS_StateImageMask" ],
        "fileStr" : null,
        "superType" : null,
        "returnType" : null,
        "referenceType" : null,
        "interfaceType" : [ ],
        "typeJava" : "CONSTANT",
        "api" : false,
        "fixed" : false
      },
      "LVNI_ToRight" : {
        "id" : -1823102110,
        "nameJava" : "LVNI_ToRight",
        "packageJava" : "",
        "owner" : -1823102147,
        "ownerJava" : "Vtlstvw",
        "ownerTypeJava" : "INTERFACEINCLUDE",
        "nameCDK" : [ "LVNI_ToRight" ],
        "fileStr" : null,
        "superType" : null,
        "returnType" : null,
        "referenceType" : null,
        "interfaceType" : [ ],
        "typeJava" : "CONSTANT",
        "api" : false,
        "fixed" : false
      },
      "LVS_AlignLeft" : {
        "id" : -1823102133,
        "nameJava" : "LVS_AlignLeft",
        "packageJava" : "",
        "owner" : -1823102147,
        "ownerJava" : "Vtlstvw",
        "ownerTypeJava" : "INTERFACEINCLUDE",
        "nameCDK" : [ "LVS_AlignLeft" ],
        "fileStr" : null,
        "superType" : null,
        "returnType" : null,
        "referenceType" : null,
        "interfaceType" : [ ],
        "typeJava" : "CONSTANT",
        "api" : false,
        "fixed" : false
      },
      "LVIF_Image" : {
        "id" : -1823102126,
        "nameJava" : "LVIF_Image",
        "packageJava" : "",
        "owner" : -1823102147,
        "ownerJava" : "Vtlstvw",
        "ownerTypeJava" : "INTERFACEINCLUDE",
        "nameCDK" : [ "LVIF_Image" ],
        "fileStr" : null,
        "superType" : null,
        "returnType" : null,
        "referenceType" : null,
        "interfaceType" : [ ],
        "typeJava" : "CONSTANT",
        "api" : false,
        "fixed" : false
      },
      "LVS_SmallIcon" : {
        "id" : -1823102144,
        "nameJava" : "LVS_SmallIcon",
        "packageJava" : "",
        "owner" : -1823102147,
        "ownerJava" : "Vtlstvw",
        "ownerTypeJava" : "INTERFACEINCLUDE",
        "nameCDK" : [ "LVS_SmallIcon" ],
        "fileStr" : null,
        "superType" : null,
        "returnType" : null,
        "referenceType" : null,
        "interfaceType" : [ ],
        "typeJava" : "CONSTANT",
        "api" : false,
        "fixed" : false
      },
      "LVNI_Below" : {
        "id" : -1823102112,
        "nameJava" : "LVNI_Below",
        "packageJava" : "",
        "owner" : -1823102147,
        "ownerJava" : "Vtlstvw",
        "ownerTypeJava" : "INTERFACEINCLUDE",
        "nameCDK" : [ "LVNI_Below" ],
        "fileStr" : null,
        "superType" : null,
        "returnType" : null,
        "referenceType" : null,
        "interfaceType" : [ ],
        "typeJava" : "CONSTANT",
        "api" : false,
        "fixed" : false
      },
      "LVFI_NearestXY" : {
        "id" : -1823102106,
        "nameJava" : "LVFI_NearestXY",
        "packageJava" : "",
        "owner" : -1823102147,
        "ownerJava" : "Vtlstvw",
        "ownerTypeJava" : "INTERFACEINCLUDE",
        "nameCDK" : [ "LVFI_NearestXY" ],
        "fileStr" : null,
        "superType" : null,
        "returnType" : null,
        "referenceType" : null,
        "interfaceType" : [ ],
        "typeJava" : "CONSTANT",
        "api" : false,
        "fixed" : false
      },
      "LVA_AlignLeft" : {
        "id" : -1823102091,
        "nameJava" : "LVA_AlignLeft",
        "packageJava" : "",
        "owner" : -1823102147,
        "ownerJava" : "Vtlstvw",
        "ownerTypeJava" : "INTERFACEINCLUDE",
        "nameCDK" : [ "LVA_AlignLeft" ],
        "fileStr" : null,
        "superType" : null,
        "returnType" : null,
        "referenceType" : null,
        "interfaceType" : [ ],
        "typeJava" : "CONSTANT",
        "api" : false,
        "fixed" : false
      },
      "LVNI_Above" : {
        "id" : -1823102113,
        "nameJava" : "LVNI_Above",
        "packageJava" : "",
        "owner" : -1823102147,
        "ownerJava" : "Vtlstvw",
        "ownerTypeJava" : "INTERFACEINCLUDE",
        "nameCDK" : [ "LVNI_Above" ],
        "fileStr" : null,
        "superType" : null,
        "returnType" : null,
        "referenceType" : null,
        "interfaceType" : [ ],
        "typeJava" : "CONSTANT",
        "api" : false,
        "fixed" : false
      },
      "LVIR_Label" : {
        "id" : -1823102103,
        "nameJava" : "LVIR_Label",
        "packageJava" : "",
        "owner" : -1823102147,
        "ownerJava" : "Vtlstvw",
        "ownerTypeJava" : "INTERFACEINCLUDE",
        "nameCDK" : [ "LVIR_Label" ],
        "fileStr" : null,
        "superType" : null,
        "returnType" : null,
        "referenceType" : null,
        "interfaceType" : [ ],
        "typeJava" : "CONSTANT",
        "api" : false,
        "fixed" : false
      },
      "LVN_BeginRDrag" : {
        "id" : -1823102073,
        "nameJava" : "LVN_BeginRDrag",
        "packageJava" : "",
        "owner" : -1823102147,
        "ownerJava" : "Vtlstvw",
        "ownerTypeJava" : "INTERFACEINCLUDE",
        "nameCDK" : [ "LVN_BeginRDrag" ],
        "fileStr" : null,
        "superType" : null,
        "returnType" : null,
        "referenceType" : null,
        "interfaceType" : [ ],
        "typeJava" : "CONSTANT",
        "api" : false,
        "fixed" : false
      },
      "LVIF_Param" : {
        "id" : -1823102125,
        "nameJava" : "LVIF_Param",
        "packageJava" : "",
        "owner" : -1823102147,
        "ownerJava" : "Vtlstvw",
        "ownerTypeJava" : "INTERFACEINCLUDE",
        "nameCDK" : [ "LVIF_Param" ],
        "fileStr" : null,
        "superType" : null,
        "returnType" : null,
        "referenceType" : null,
        "interfaceType" : [ ],
        "typeJava" : "CONSTANT",
        "api" : false,
        "fixed" : false
      },
      "LVIR_Bounds" : {
        "id" : -1823102105,
        "nameJava" : "LVIR_Bounds",
        "packageJava" : "",
        "owner" : -1823102147,
        "ownerJava" : "Vtlstvw",
        "ownerTypeJava" : "INTERFACEINCLUDE",
        "nameCDK" : [ "LVIR_Bounds" ],
        "fileStr" : null,
        "superType" : null,
        "returnType" : null,
        "referenceType" : null,
        "interfaceType" : [ ],
        "typeJava" : "CONSTANT",
        "api" : false,
        "fixed" : false
      },
      "LVHT_Nowhere" : {
        "id" : -1823102101,
        "nameJava" : "LVHT_Nowhere",
        "packageJava" : "",
        "owner" : -1823102147,
        "ownerJava" : "Vtlstvw",
        "ownerTypeJava" : "INTERFACEINCLUDE",
        "nameCDK" : [ "LVHT_Nowhere" ],
        "fileStr" : null,
        "superType" : null,
        "returnType" : null,
        "referenceType" : null,
        "interfaceType" : [ ],
        "typeJava" : "CONSTANT",
        "api" : false,
        "fixed" : false
      },
      "LVCFMT_JustifyMask" : {
        "id" : -1823102082,
        "nameJava" : "LVCFMT_JustifyMask",
        "packageJava" : "",
        "owner" : -1823102147,
        "ownerJava" : "Vtlstvw",
        "ownerTypeJava" : "INTERFACEINCLUDE",
        "nameCDK" : [ "LVCFMT_JustifyMask" ],
        "fileStr" : null,
        "superType" : null,
        "returnType" : null,
        "referenceType" : null,
        "interfaceType" : [ ],
        "typeJava" : "CONSTANT",
        "api" : false,
        "fixed" : false
      },
      "LVNI_All" : {
        "id" : -1823102118,
        "nameJava" : "LVNI_All",
        "packageJava" : "",
        "owner" : -1823102147,
        "ownerJava" : "Vtlstvw",
        "ownerTypeJava" : "INTERFACEINCLUDE",
        "nameCDK" : [ "LVNI_All" ],
        "fileStr" : null,
        "superType" : null,
        "returnType" : null,
        "referenceType" : null,
        "interfaceType" : [ ],
        "typeJava" : "CONSTANT",
        "api" : false,
        "fixed" : false
      },
      "LVHT_ToRight" : {
        "id" : -1823102094,
        "nameJava" : "LVHT_ToRight",
        "packageJava" : "",
        "owner" : -1823102147,
        "ownerJava" : "Vtlstvw",
        "ownerTypeJava" : "INTERFACEINCLUDE",
        "nameCDK" : [ "LVHT_ToRight" ],
        "fileStr" : null,
        "superType" : null,
        "returnType" : null,
        "referenceType" : null,
        "interfaceType" : [ ],
        "typeJava" : "CONSTANT",
        "api" : false,
        "fixed" : false
      }
    },
    "INTERFACEINCLUDE" : {
      "Vtlstvw" : {
        "id" : -1823102147,
        "nameJava" : "Vtlstvw",
        "packageJava" : "",
        "owner" : null,
        "ownerJava" : null,
        "ownerTypeJava" : null,
        "nameCDK" : [ "vtlstvw" ],
        "fileStr" : null,
        "superType" : null,
        "returnType" : null,
        "referenceType" : null,
        "interfaceType" : [ "com.centura.api.vt.Vtcomm", "com.centura.api.vt.dlls.Vti20" ],
        "typeJava" : "INTERFACEINCLUDE",
        "api" : false,
        "fixed" : false
      }
    }
  },
  "packageBase" : "com.centura.api.vt"
}